-- Merging decision tree log ---
manifest
ADDED from /home/pazfernando/AndroidStudioProjects/ActionBarCompat-Basic/Application/src/main/AndroidManifest.xml:16:1-45:12
	package
		ADDED from /home/pazfernando/AndroidStudioProjects/ActionBarCompat-Basic/Application/src/main/AndroidManifest.xml:17:5-56
	android:versionName
		ADDED from /home/pazfernando/AndroidStudioProjects/ActionBarCompat-Basic/Application/src/main/AndroidManifest.xml:19:5-30
		INJECTED from /home/pazfernando/AndroidStudioProjects/ActionBarCompat-Basic/Application/src/main/AndroidManifest.xml
		INJECTED from /home/pazfernando/AndroidStudioProjects/ActionBarCompat-Basic/Application/src/main/AndroidManifest.xml
	android:versionCode
		ADDED from /home/pazfernando/AndroidStudioProjects/ActionBarCompat-Basic/Application/src/main/AndroidManifest.xml:18:5-28
		INJECTED from /home/pazfernando/AndroidStudioProjects/ActionBarCompat-Basic/Application/src/main/AndroidManifest.xml
		INJECTED from /home/pazfernando/AndroidStudioProjects/ActionBarCompat-Basic/Application/src/main/AndroidManifest.xml
	xmlns:android
		ADDED from /home/pazfernando/AndroidStudioProjects/ActionBarCompat-Basic/Application/src/main/AndroidManifest.xml:16:11-69
application
ADDED from /home/pazfernando/AndroidStudioProjects/ActionBarCompat-Basic/Application/src/main/AndroidManifest.xml:23:5-43:19
MERGED from [com.android.support:gridlayout-v7:24.1.1] /home/pazfernando/AndroidStudioProjects/ActionBarCompat-Basic/Application/build/intermediates/exploded-aar/com.android.support/gridlayout-v7/24.1.1/AndroidManifest.xml:22:5-20
MERGED from [com.android.support:support-v4:24.1.1] /home/pazfernando/AndroidStudioProjects/ActionBarCompat-Basic/Application/build/intermediates/exploded-aar/com.android.support/support-v4/24.1.1/AndroidManifest.xml:25:5-20
MERGED from [com.android.support:cardview-v7:24.1.1] /home/pazfernando/AndroidStudioProjects/ActionBarCompat-Basic/Application/build/intermediates/exploded-aar/com.android.support/cardview-v7/24.1.1/AndroidManifest.xml:22:5-20
MERGED from [com.android.support:appcompat-v7:24.1.1] /home/pazfernando/AndroidStudioProjects/ActionBarCompat-Basic/Application/build/intermediates/exploded-aar/com.android.support/appcompat-v7/24.1.1/AndroidManifest.xml:25:5-20
MERGED from [com.android.support:animated-vector-drawable:24.1.1] /home/pazfernando/AndroidStudioProjects/ActionBarCompat-Basic/Application/build/intermediates/exploded-aar/com.android.support/animated-vector-drawable/24.1.1/AndroidManifest.xml:22:5-20
MERGED from [com.android.support:support-vector-drawable:24.1.1] /home/pazfernando/AndroidStudioProjects/ActionBarCompat-Basic/Application/build/intermediates/exploded-aar/com.android.support/support-vector-drawable/24.1.1/AndroidManifest.xml:23:5-20
	android:label
		ADDED from /home/pazfernando/AndroidStudioProjects/ActionBarCompat-Basic/Application/src/main/AndroidManifest.xml:26:9-41
	android:allowBackup
		ADDED from /home/pazfernando/AndroidStudioProjects/ActionBarCompat-Basic/Application/src/main/AndroidManifest.xml:24:9-35
	android:icon
		ADDED from /home/pazfernando/AndroidStudioProjects/ActionBarCompat-Basic/Application/src/main/AndroidManifest.xml:25:9-45
	android:theme
		ADDED from /home/pazfernando/AndroidStudioProjects/ActionBarCompat-Basic/Application/src/main/AndroidManifest.xml:27:9-47
activity#com.example.android.actionbarcompat.basic.MainActivity
ADDED from /home/pazfernando/AndroidStudioProjects/ActionBarCompat-Basic/Application/src/main/AndroidManifest.xml:28:9-36:20
	android:name
		ADDED from /home/pazfernando/AndroidStudioProjects/ActionBarCompat-Basic/Application/src/main/AndroidManifest.xml:28:19-47
intent-filter#android.intent.action.MAIN+android.intent.category.LAUNCHER
ADDED from /home/pazfernando/AndroidStudioProjects/ActionBarCompat-Basic/Application/src/main/AndroidManifest.xml:31:13-35:29
action#android.intent.action.MAIN
ADDED from /home/pazfernando/AndroidStudioProjects/ActionBarCompat-Basic/Application/src/main/AndroidManifest.xml:32:17-69
	android:name
		ADDED from /home/pazfernando/AndroidStudioProjects/ActionBarCompat-Basic/Application/src/main/AndroidManifest.xml:32:25-66
category#android.intent.category.LAUNCHER
ADDED from /home/pazfernando/AndroidStudioProjects/ActionBarCompat-Basic/Application/src/main/AndroidManifest.xml:34:17-77
	android:name
		ADDED from /home/pazfernando/AndroidStudioProjects/ActionBarCompat-Basic/Application/src/main/AndroidManifest.xml:34:27-74
activity#com.example.android.actionbarcompat.basic.ScrollingActivity
ADDED from /home/pazfernando/AndroidStudioProjects/ActionBarCompat-Basic/Application/src/main/AndroidManifest.xml:37:9-39:64
	android:label
		ADDED from /home/pazfernando/AndroidStudioProjects/ActionBarCompat-Basic/Application/src/main/AndroidManifest.xml:39:13-61
	android:name
		ADDED from /home/pazfernando/AndroidStudioProjects/ActionBarCompat-Basic/Application/src/main/AndroidManifest.xml:38:13-46
activity#com.example.android.actionbarcompat.basic.ScrollingActivity2
ADDED from /home/pazfernando/AndroidStudioProjects/ActionBarCompat-Basic/Application/src/main/AndroidManifest.xml:40:9-42:74
	android:label
		ADDED from /home/pazfernando/AndroidStudioProjects/ActionBarCompat-Basic/Application/src/main/AndroidManifest.xml:42:13-62
	android:name
		ADDED from /home/pazfernando/AndroidStudioProjects/ActionBarCompat-Basic/Application/src/main/AndroidManifest.xml:41:13-47
uses-sdk
INJECTED from /home/pazfernando/AndroidStudioProjects/ActionBarCompat-Basic/Application/src/main/AndroidManifest.xml reason: use-sdk injection requested
MERGED from [com.android.support:gridlayout-v7:24.1.1] /home/pazfernando/AndroidStudioProjects/ActionBarCompat-Basic/Application/build/intermediates/exploded-aar/com.android.support/gridlayout-v7/24.1.1/AndroidManifest.xml:20:5-43
MERGED from [com.android.support:support-v4:24.1.1] /home/pazfernando/AndroidStudioProjects/ActionBarCompat-Basic/Application/build/intermediates/exploded-aar/com.android.support/support-v4/24.1.1/AndroidManifest.xml:21:5-23:54
MERGED from [com.android.support:cardview-v7:24.1.1] /home/pazfernando/AndroidStudioProjects/ActionBarCompat-Basic/Application/build/intermediates/exploded-aar/com.android.support/cardview-v7/24.1.1/AndroidManifest.xml:20:5-43
MERGED from [com.android.support:appcompat-v7:24.1.1] /home/pazfernando/AndroidStudioProjects/ActionBarCompat-Basic/Application/build/intermediates/exploded-aar/com.android.support/appcompat-v7/24.1.1/AndroidManifest.xml:21:5-23:78
MERGED from [com.android.support:animated-vector-drawable:24.1.1] /home/pazfernando/AndroidStudioProjects/ActionBarCompat-Basic/Application/build/intermediates/exploded-aar/com.android.support/animated-vector-drawable/24.1.1/AndroidManifest.xml:20:5-44
MERGED from [com.android.support:support-vector-drawable:24.1.1] /home/pazfernando/AndroidStudioProjects/ActionBarCompat-Basic/Application/build/intermediates/exploded-aar/com.android.support/support-vector-drawable/24.1.1/AndroidManifest.xml:21:5-43
	tools:overrideLibrary
		ADDED from [com.android.support:support-v4:24.1.1] /home/pazfernando/AndroidStudioProjects/ActionBarCompat-Basic/Application/build/intermediates/exploded-aar/com.android.support/support-v4/24.1.1/AndroidManifest.xml:23:9-51
	android:targetSdkVersion
		INJECTED from /home/pazfernando/AndroidStudioProjects/ActionBarCompat-Basic/Application/src/main/AndroidManifest.xml
		INJECTED from /home/pazfernando/AndroidStudioProjects/ActionBarCompat-Basic/Application/src/main/AndroidManifest.xml
	android:minSdkVersion
		INJECTED from /home/pazfernando/AndroidStudioProjects/ActionBarCompat-Basic/Application/src/main/AndroidManifest.xml
		INJECTED from /home/pazfernando/AndroidStudioProjects/ActionBarCompat-Basic/Application/src/main/AndroidManifest.xml
